"","year","tb.prev","tb.mort","tb.inc","pop.size","MDR.prev","MDR.per.new.incid","MDR.per.retreat.incid","per.LTBI","per.TB.recent","ari","avg.time.diag","deaths","TB_treat_TP"
"1",2012,1068.09691442946,193.920296927352,1106.55558090052,36935527.9030642,16.5172484881789,0.0404115046286686,0.0546793134623852,0.785493693295024,0.839961109796555,4.08336464310134,0.881867552431924,71478.9995253854,292643.768428888
"2",2013,1047.50430367771,187.379156251497,1076.82937566741,37159502.5949892,16.1657380073285,0.0404367349093904,0.0548739729002097,0.783157076513042,0.838250050621838,3.9465126226219,0.882744191280733,69446.6428416985,288252.306715469
"3",2014,1013.56905164977,177.965279975394,1033.96015127569,37384774.639869,15.5885712595479,0.0404667532970193,0.0550985261987927,0.780811650427112,0.836834652779467,3.79497556229699,0.883761136580133,66372.9344537907,279592.314439289
"4",2015,977.344105925603,168.399690691368,991.540823142916,37611413.0843405,14.9693913138707,0.0404656369295861,0.0552416157762834,0.778379233562338,0.836667079616601,3.67141540317298,0.884775566601253,63185.1882133781,270037.6605203
"5",2016,941.187692455352,157.869000707555,947.324230042217,37839539.1286766,14.281008838422,0.040859013238182,0.0557074224507866,0.775838873586817,0.8357020499948,3.52972433477194,0.885715754401241,59455.5963565828,257565.464627136
"6",2017,895.591237887844,144.165981773645,890.863381101204,38070457.1504565,13.3088977159028,0.0423397175981191,0.0565973080203132,0.773145473895836,0.831106277003455,3.3114055991251,0.886536976527416,54659.1650335006,237116.547444588
"7",2018,845.242035780646,131.301098534157,834.056224024425,38304802.6310373,12.3068593700539,0.0439088688742241,0.0572555019136582,0.770145109621216,0.825126228866742,3.08529938472075,0.8872266581474,50101.9490126545,216368.849170041
"8",2019,796.954469775291,119.996026461558,781.862680629986,38542384.2364673,11.3678412085125,0.0454028128270937,0.0577172204324055,0.766760485860138,0.818716448291308,2.87535074411309,0.887793212427324,46085.2570098187,197608.852524105
"9",2020,753.499461157472,110.264924589424,735.671879488551,38782898.7638442,10.5229363339664,0.046794585201109,0.0580299327682803,0.762988783810801,0.812343210812909,2.68885853181562,0.88825072123205,42624.1953672149,181232.796449764
"10",2021,716.269520698153,102.80343390147,698.573682091902,39025991.6275119,9.83468074138941,0.0476399766250045,0.0578877004631234,0.758859694564115,0.807267504585269,2.54293953975136,0.888615066751306,40081.5305479895,169129.564213104
"11",2022,691.123604163677,98.6655886247585,676.177795978523,39270645.7438141,9.43215588654643,0.0473667197181417,0.0574533642364982,0.754449375306682,0.805928606477261,2.46779496320501,0.888908993541671,38703.5309692246,163859.66823774
"12",2023,674.582968882275,95.5194060340279,660.177563999174,39516342.2606286,9.15072865595782,0.0470414723338015,0.0572419901344375,0.749897384092571,0.805936191980448,2.4192179500741,0.889147993550452,37710.2654869801,160745.549124139
"13",2024,662.567610300982,92.9385477522058,647.708095561384,39763016.9014266,8.93805989871746,0.0467831338871699,0.0571368294826743,0.745290907583605,0.806523649023516,2.38400256496569,0.889341468189131,36925.8513712762,158591.442150166
"14",2025,653.173985925909,90.7578327726056,637.501258191748,40010678.4903744,8.77055140638502,0.0465937185609614,0.0570992542632828,0.740676499649083,0.807369751288085,2.3565616942184,0.889497109939049,36288.5241213819,157019.106264492
"15",2026,645.485409487755,88.8845745368947,628.902571858536,40259358.5906074,8.63455862231508,0.0464577770563068,0.0571053192107802,0.736081911088469,0.808327891018782,2.33418380892526,0.8896214101463,35764.2450292548,155844.684639781
"16",2027,639.020910253775,87.2593488874876,621.536161335684,40509095.1813647,8.52165937398815,0.046360137031456,0.057138342493677,0.731525750106783,0.809329819970461,2.31543592235183,0.889719869930998,35331.4022061161,154967.845783677
"17",2028,633.499278402121,85.8398879776867,615.160045685355,40759926.2765051,8.42640001651435,0.0462894069697305,0.0571872776800976,0.727021746044896,0.810342731618132,2.29947658415305,0.889797154042337,34974.7307884094,154327.330561283
"18",2029,628.736299322667,84.5937544262511,609.601771647053,41011887.6960814,8.34506804923332,0.0462378108730535,0.0572451037433041,0.722580693234342,0.811350072743059,2.28575329502097,0.889857218411888,34682.5484810858,153881.343069509
"19",2030,624.599198368742,83.4948727622503,604.729146812671,41265012.4358535,8.27501315327398,0.046200253937822,0.0573074807828116,0.718211355827652,0.812342977713019,2.27386749647868,0.88990340913673,34445.458176818,153598.742530507
"20",2031,620.985329195119,82.5216906339692,600.43590553204,41519330.7387698,8.21425593214779,0.046173424332755,0.0573717710215125,0.713920944361736,0.813316362741449,2.26351110119516,0.889938551715892,34255.6705670221,153454.870052125
"21",2032,617.811823917895,81.6561246239466,596.634274026306,41774870.386525,8.16126222398903,0.0461551417084229,0.057436398595929,0.709715386213506,0.814267133921023,2.25443553954792,0.889965026240421,34106.6230833133,153429.475110736
"22",2033,615.010092586416,80.8828769328091,593.250660399013,42031657.0440013,8.11480796044425,0.0461439271855155,0.0575004442343745,0.705599503802345,0.81519333143456,2.2464352578027,0.889984832047911,33992.7376065315,153505.583518769
"23",2034,612.522589632469,80.1889482256959,590.222871665825,42289714.5877604,8.07389537954089,0.0461387344745293,0.0575633943424068,0.701577147494299,0.816093701059468,2.23933799795059,0.889999643188717,33909.2502076515,153668.810360306
"24",2035,610.300695759156,79.5632648803133,587.498133765122,42549065.3956992,8.0376987938189,0.0461387865733336,0.057624986809013,0.697651304422726,0.816967464742775,2.23299842487071,0.890010855980343,33852.0819355258,153906.895923553
