"","year","tb.prev","tb.mort","tb.inc","pop.size","MDR.prev","MDR.per.new.incid","MDR.per.retreat.incid","per.LTBI","per.TB.recent","ari","avg.time.diag","deaths","TB_treat_TP"
"1",2012,1068.09691442946,193.920296927352,1106.55558090052,36935527.9030642,16.5172484881789,0.0404115046286686,0.0546793134623852,0.785493693295024,0.839961109796555,4.08336464310134,0.881867552431924,71478.9995253854,292643.768428888
"2",2013,1047.50430367771,187.379156251497,1076.82937566741,37159502.5949892,16.1657380073285,0.0404367349093904,0.0548739729002097,0.783157076513042,0.838250050621838,3.9465126226219,0.882744191280733,69446.6428416985,288252.306715469
"3",2014,1013.56905164977,177.965279975394,1033.96015127569,37384774.639869,15.5885712595479,0.0404667532970193,0.0550985261987927,0.780811650427112,0.836834652779467,3.79497556229699,0.883761136580133,66372.9344537907,279592.314439289
"4",2015,977.344105925603,168.399690691368,991.540823142916,37611413.0843405,14.9693913138707,0.0404656369295861,0.0552416157762834,0.778379233562338,0.836667079616601,3.67141540317298,0.884775566601253,63185.1882133781,270037.6605203
"5",2016,942.147573487709,158.996026963374,948.682402889385,37839459.2355001,14.3659214596728,0.0404331922206264,0.0554992028502731,0.775837018913441,0.836500062421208,3.55015755846319,0.885716708576947,59995.4572816163,260435.509414358
"6",2017,906.836211871579,149.500031116611,903.508613196241,38069189.473414,13.7980125897205,0.0404498774982083,0.0563448586177587,0.773169932023943,0.835640285255122,3.41938904002439,0.886551628625998,56768.7847611766,249966.883383816
"7",2018,872.67619508055,140.807441023135,861.425210617049,38300763.3522207,13.2793810084805,0.0405392532774006,0.057326995383931,0.770346490380838,0.834522219385163,3.29335749690017,0.88727187229419,53803.8975823143,239859.669874012
"8",2019,841.197087889723,133.084881998549,823.44742810607,38534172.9403672,12.8162157945583,0.0406612534761761,0.0583627910793283,0.767354776542032,0.833340467412832,3.17730449927902,0.887882481463861,51173.4992729675,230655.545122597
"9",2020,812.964464843405,126.309981344573,789.699954630369,38769383.1367476,12.4091703631358,0.0407953100506788,0.0594373164714828,0.76420151219976,0.832190728616647,3.07282973592044,0.888393829016594,48874.8851790709,222474.671103319
"10",2021,788.007524488853,120.399037962618,759.922110866802,39006355.3049659,12.0555464212612,0.0409341567345389,0.0605473210976181,0.760902616318715,0.831118489140989,2.97984258714175,0.888817954188014,46881.5760204552,215295.836587627
"11",2022,766.270871191692,115.441303806094,735.615637352445,39245040.844572,11.7509067842726,0.0410741067444805,0.0615237621344478,0.757477517683766,0.830330063566889,2.90134100833684,0.889166950180155,45256.2515879066,209358.987414476
"12",2023,749.065908272423,111.722819263053,718.439313205307,39485219.4354098,11.490215940026,0.0411493485880289,0.0618439562393579,0.753954895223189,0.830350086432377,2.84617163110235,0.889453894429419,44070.7794896158,205401.099598401
"13",2024,735.607173430668,108.645212867902,704.547290871366,39726755.5178832,11.2676340641649,0.0411478090313847,0.0620501874093744,0.750380719737839,0.830717213570692,2.80350303376261,0.889689590780056,43125.4617040822,202546.540074448
"14",2025,724.695328573409,106.034289562798,692.98842440177,39969630.0928992,11.0777551192557,0.0411134592249821,0.0622292518947073,0.746789438929848,0.831255482874806,2.76903507187025,0.889882391348043,42352.0520082206,200380.503134885
"15",2026,715.636058533538,103.796955976956,683.220226259498,40213846.7736478,10.9158486477181,0.0410701732580998,0.0623982264435106,0.743204160257088,0.8318831142174,2.74052507706711,0.890039352500379,41716.5834706428,198728.35686567
"16",2027,708.00587117994,101.867405654782,674.885186007634,40459417.1381539,10.7778115286461,0.0410287822664453,0.0625635083324414,0.739641658175017,0.832557174547412,2.71660297488203,0.890166471442903,41195.2888522766,197482.400778385
"17",2028,701.521757940776,100.195424368135,667.727201745528,40706355.7613919,10.6601181610266,0.0409938106772306,0.0627273135994581,0.736114926901322,0.833253908949516,2.69635200773446,0.890268844846183,40770.0765874952,196568.595657989
"18",2029,695.979247691732,98.7410130042327,661.551116366558,40954678.0506774,10.5597587218755,0.0409668136978579,0.0628900460115627,0.732634433999143,0.83395940609615,2.67910999322332,0.890350795295682,40426.5283264657,195932.148256389
"19",2030,691.22137800341,97.471411022045,656.201552219851,41204399.3370626,10.4741705779658,0.040947992122102,0.0630514066950384,0.729208790879524,0.834664972864576,2.6643688733734,0.890415984607485,40152.8060221511,195530.204463474
"20",2031,687.122607532969,96.3593377307369,651.551318700988,41455534.5350989,10.4011746579394,0.0409369591653864,0.0632108996952011,0.725845130766494,0.835364834584396,2.6517224791439,0.890467509908186,39939.0154003014,195327.998077871
"21",2032,683.579874802514,95.3818501977411,647.494524637625,41708098.0531552,10.3389186401344,0.0409331024983986,0.0633680493768391,0.722549346385364,0.836054957612369,2.64083750160465,0.89050798619635,39776.7984979872,195296.670105132
"22",2033,680.507236052136,94.5195399671757,643.942129096231,41962103.80902,10.2858276438633,0.0409357515763145,0.0635224814207026,0.71932625638567,0.836732424865588,2.63143610366368,0.890539617058104,39659.0506464392,195411.9341899
"23",2034,677.832366040163,93.7559303122034,640.8188270509,42217565.2845177,10.2405620558412,0.0409442519987917,0.0636739414764459,0.716179733834984,0.837395087111733,2.62328459012158,0.89056425514908,39579.709879624,195653.188154408
"24",2035,675.494086288573,93.0770026988632,638.060721025133,42474495.589882,10.2019817419469,0.0409579958472785,0.0638222871109225,0.713112812927414,0.838041355193834,2.6161854141741,0.890583453886997,39533.5921727109,196002.875342635
