"","year","tb.prev","tb.mort","tb.inc","pop.size","MDR.per.new.incid","MDR.per.retreat.incid","per.LTBI","per.TB.recent","ari","avg.time.diag"
"1",2012,1069.33511457854,187.503774307842,1130.1020322179,36935413.3805474,0.0196452982382129,0.0451506151357367,0.659983476996571,0.857871693985471,4.05389384746601,0.869824439570747
"2",2013,1037.16433932367,177.275673281828,1082.81808601357,37159252.4256673,0.0197060011306804,0.0458236587104568,0.65620892095155,0.856323120302942,3.86657106862242,0.870940840978274
"3",2014,990.931761829616,165.627267340212,1026.40302714284,37384447.9987086,0.0198257438281519,0.0464606890209155,0.652587070994073,0.854507007012941,3.67168446693195,0.871999285077949
"4",2015,946.67278372038,155.259212828271,976.638509493778,37611008.3205165,0.0199361578594107,0.0468917538766103,0.649033955635417,0.853947388486079,3.52420729666872,0.872929024437974
"5",2016,860.941965464715,135.753558668363,865.179218779953,37838943.1521119,0.0213820676557977,0.0490287163893648,0.64727133997716,0.840903178517192,3.08074237519609,0.873674731316996
"6",2017,792.893719896186,125.391496680599,804.144032011065,38068259.1984747,0.0220225920297519,0.0493463895180619,0.645175494125273,0.834534541224731,2.84781920295681,0.874267819580775
"7",2018,749.187410644913,118.107494796156,764.118868523435,38298964.8560163,0.022225776974207,0.049407288932733,0.64278187004076,0.831558425577043,2.70514025624986,0.874747242325996
"8",2019,719.570092506744,112.498517942875,735.091756101474,38531068.565871,0.0222511688664582,0.0494493518996815,0.640166751404496,0.830332435303855,2.60755234161902,0.875136508227982
"9",2020,697.774323764681,107.943640520142,712.44573126644,38764578.8158108,0.0222227470089402,0.049544532377137,0.637380102402489,0.829992312339923,2.53440848184813,0.875453198478065
"10",2021,680.616212895553,104.122679898402,693.897759633595,38999504.14183,0.0221904404057543,0.0497059079709633,0.634454537542607,0.830104901042137,2.47583387078547,0.875710967535659
"11",2022,666.477518298977,100.853489237562,678.236309458058,39235853.1292897,0.0221705671595712,0.0499242059919234,0.63141369591387,0.830456780353096,2.4268585131159,0.875920661082914
"12",2023,654.48666601493,98.0212532554366,664.758457825685,39473634.4138053,0.0221659571970367,0.0501845662404446,0.628276571738395,0.830941651674255,2.38479151447488,0.876091039385698
"13",2024,644.131458265485,95.5463939141238,653.014381997692,39712856.6819657,0.0221748342036023,0.0504730483530489,0.625059540255197,0.831504715409056,2.34803550447631,0.876229266211478
"14",2025,635.080133148086,93.369498619888,642.689054432433,39953528.6719365,0.0221943792634997,0.050778520849588,0.621777280557101,0.832116080266579,2.3155449361479,0.876341252960738
"15",2026,660.573393198484,98.3740460711154,681.878748927553,40195658.3488121,0.0208642570792891,0.0492719299320832,0.616955768729376,0.845495697909277,2.51244037167646,0.87645722855481
"16",2027,681.52581212322,98.9961104983654,695.333314468156,40439255.3999691,0.0203715525821223,0.0495839066174351,0.612398899611704,0.851708040074763,2.59592163241199,0.876569476359259
"17",2028,690.821925057466,98.5680885004957,699.017015085662,40684328.7183432,0.0202200701659953,0.0500528029782315,0.608085578843552,0.855140187069726,2.63091250258342,0.876669424867466
"18",2029,693.353147660197,97.732073209549,698.097102543775,40930887.2503852,0.0202049324724426,0.0505281846345442,0.603967210711528,0.857230462759831,2.64201480794445,0.876756540858144
"19",2030,692.518313306733,96.7559908974593,695.100028918436,41178939.9970804,0.0202413728877643,0.0509689488923263,0.600011699190821,0.858634539070978,2.64153683596207,0.876831883100691
"20",2031,690.15760517637,95.7671719843878,691.295069803728,41428496.0124912,0.0202934981302543,0.0513638692946709,0.596199320696717,0.859675463806026,2.63576532123718,0.876897049083536
"21",2032,687.211712450244,94.8237168087158,687.307933728861,41679564.4095744,0.0203467371557298,0.0517149419154987,0.592517616681702,0.860517508762591,2.62788028087934,0.876953759115124
"22",2033,684.144649213713,93.9489946084315,683.433754938547,41932154.3509003,0.0203959887138063,0.0520288341849357,0.588958271233835,0.861245533467716,2.61945370108262,0.877003658242828
"23",2034,681.174557983463,93.1493017239714,679.799654563452,42186275.0586619,0.0204401930388774,0.0523129011731489,0.585515331810492,0.86190389317219,2.61123115736069,0.877048230840129
"24",2035,678.394014770381,92.4228328469001,676.448377084834,42441935.8097413,0.0204798493480131,0.0525736185897603,0.58218422091291,0.862515945325805,2.60353537308184,0.877088768919801
