"","year","tb.prev","tb.mort","tb.inc","pop.size","MDR.prev","MDR.per.new.incid","MDR.per.retreat.incid","per.LTBI","per.TB.recent","ari","avg.time.diag","deaths","TB_treat_TP"
"1",2012,1068.09691442946,193.920296927352,1106.55558090052,36935527.9030642,16.5172484881789,0.0404115046286686,0.0546793134623852,0.785493693295024,0.839961109796555,4.08336464310134,0.881867552431924,71478.9995253854,292643.768428888
"2",2013,1047.50430367771,187.379156251497,1076.82937566741,37159502.5949892,16.1657380073285,0.0404367349093904,0.0548739729002097,0.783157076513042,0.838250050621838,3.9465126226219,0.882744191280733,69446.6428416985,288252.306715469
"3",2014,1013.56905164977,177.965279975394,1033.96015127569,37384774.639869,15.5885712595479,0.0404667532970193,0.0550985261987927,0.780811650427112,0.836834652779467,3.79497556229699,0.883761136580133,66372.9344537907,279592.314439289
"4",2015,977.344105925603,168.399690691368,991.540823142916,37611413.0843405,14.9693913138707,0.0404656369295861,0.0552416157762834,0.778379233562338,0.836667079616601,3.67141540317298,0.884775566601253,63185.1882133781,270037.6605203
"5",2016,942.072447872069,158.90582447139,947.838971786904,37839465.4540043,14.3659082068391,0.0404341510671051,0.0555467491440854,0.775837165163271,0.83643625299361,3.54851608136266,0.885716634081245,59951.3942959718,260298.419609285
"6",2017,905.89055189152,149.047368440357,900.039898191444,38069294.8695612,13.7979446480165,0.0404772634898422,0.0566454088260085,0.773167940116488,0.835262617468354,3.41016967209559,0.886550405516787,56589.1378681505,249197.712634524
"7",2018,870.292049800658,139.975328059791,855.187455675867,38301108.1806275,13.2795305760333,0.0406238391928798,0.0579366737231781,0.770329434741378,0.833733017938296,3.27499220439702,0.887267999034867,53479.0831380714,238315.598816552
"8",2019,837.234062629731,131.905349162761,814.590156373294,38534889.0099082,12.8170220711892,0.0408179863312403,0.0593084522515714,0.767303267528907,0.832104446524108,3.14978437003787,0.887874674618732,50714.085382186,228348.344593027
"9",2020,807.473210817246,124.822443499068,778.455386286474,38770585.2460427,12.4111044351109,0.0410299050026173,0.0607393450529431,0.76409422739181,0.830501454988158,3.03670847918681,0.888381076511561,48294.48353268,219455.089444719
"10",2021,781.106200588817,118.640312239024,746.52713642761,39008140.8024686,12.0590586796497,0.0412478654085717,0.0622240040458393,0.76071839922169,0.828983541259411,2.93583272790475,0.888799485386486,46192.9990086826,211622.836536997
"11",2022,758.141374149689,113.501042345677,720.855086186672,39247487.2239038,11.756413322748,0.041465406918718,0.0635274862773649,0.757196161542653,0.827827521714711,2.85130461129225,0.88914223648863,44499.5515260753,205183.790408991
"12",2023,740.350582806988,109.791444371889,703.596302443819,39488334.5898014,11.4981255686272,0.0415946190352741,0.0639298688536778,0.753560000053278,0.827728198361553,2.79463706807362,0.889423169248677,43312.439945644,201099.735715327
"13",2024,726.766014758387,106.754649826829,689.857998398679,39730507.3789327,11.2781393222886,0.0416202112601003,0.0641810087601492,0.749864710715963,0.82806803414333,2.7519342487823,0.889653455131789,42379.1634413563,198246.284862346
"14",2025,715.913620112019,104.189238624025,678.522599462074,39973980.716657,11.0908973198219,0.041600466312832,0.0643967219914867,0.746150136264576,0.828617592398765,2.71794842351302,0.889841444245142,41619.7754128971,196114.848542206
"15",2026,706.976422952958,101.994790390103,668.983335749946,40218758.1489015,10.9315938613267,0.0415667131414235,0.0645991192065122,0.742441848510794,0.829272778148599,2.69006856998331,0.889994147535942,40997.40880233,194504.526335849
"16",2027,699.479492512716,100.103091934266,660.858049375697,40464853.0128982,10.79608981481,0.0415330937657588,0.064796500971314,0.738757744918455,0.829980576297543,2.66677305901476,0.890117509263756,40487.3214767161,193297.295563134
"17",2028,693.119317371978,98.4634531435597,653.882873006877,40712282.2010887,10.6808457234656,0.0415055471241189,0.0649918222854732,0.735111344232211,0.830712718906008,2.64708745782231,0.890216577369865,40071.2116769188,192415.41789668
"18",2029,687.684524000573,97.0361868244852,647.862066889066,40961063.4558672,10.5828530092098,0.041486196475303,0.0651857340176725,0.731513355284553,0.831453348011084,2.6303330336041,0.890295628361619,39734.7524762164,191803.212199145
"19",2030,683.016875929397,95.7890945124545,642.642339789542,41211214.278867,10.4995568590978,0.0414754469703831,0.0653779934951924,0.727972504651266,0.832192972159721,2.61600185689309,0.890358283972135,39466.303302569,191418.086055778
"20",2031,678.991810802285,94.6955037501741,638.099429218335,41462751.5345757,10.4287890389392,0.041472963152548,0.0655680959516182,0.724495979821159,0.832925532968479,2.60369425697439,0.890407606331377,39256.1901414068,191225.949293851
"21",2032,675.508013354878,93.7330437944647,634.130439231956,41715691.3619626,10.3687087870001,0.0414781233771462,0.0657555432357269,0.721089697463385,0.833646937324918,2.59308528932437,0.89044617996061,39096.2652366904,191198.721164254
"22",2033,672.481428573924,92.8828154299015,630.649096242906,41970049.2114432,10.3177522927479,0.0414902263733582,0.0659399433991068,0.717758483822656,0.83435430225447,2.58390549072091,0.890476181860207,38979.6127380049,191312.868914377
"23",2034,669.841515585418,92.1287840069387,627.582544427891,42225839.9259098,10.2745899498662,0.0415085816781447,0.0661210344344798,0.714506209717488,0.835045548017243,2.57592884912846,0.890499441407671,38900.3357822984,191548.473495257
"24",2035,667.528692372153,91.4573103651191,624.86901129252,42483077.8306398,10.2380903578896,0.0415325461421074,0.0662986761096179,0.711335900388199,0.835719164917748,2.56896460565059,0.890517491540638,38853.3929368274,191888.579568572
