"","year","tb.prev","tb.mort","tb.inc","pop.size","MDR.prev","MDR.per.new.incid","MDR.per.retreat.incid","per.LTBI","per.TB.recent","ari","avg.time.diag","deaths","TB_treat_TP"
"1",2012,1068.09691442946,193.920296927352,1106.55558090052,36935527.9030642,16.5172484881789,0.0404115046286686,0.0546793134623852,0.785493693295024,0.839961109796555,4.08336464310134,0.881867552431924,71478.9995253854,292643.768428888
"2",2013,1047.50430367771,187.379156251497,1076.82937566741,37159502.5949892,16.1657380073285,0.0404367349093904,0.0548739729002097,0.783157076513042,0.838250050621838,3.9465126226219,0.882744191280733,69446.6428416985,288252.306715469
"3",2014,1013.56905164977,177.965279975394,1033.96015127569,37384774.639869,15.5885712595479,0.0404667532970193,0.0550985261987927,0.780811650427112,0.836834652779467,3.79497556229699,0.883761136580133,66372.9344537907,279592.314439289
"4",2015,977.344105925603,168.399690691368,991.540823142916,37611413.0843405,14.9693913138707,0.0404656369295861,0.0552416157762834,0.778379233562338,0.836667079616601,3.67141540317298,0.884775566601253,63185.1882133781,270037.6605203
"5",2016,941.574723810638,158.335932389789,951.779375206406,37839507.0282676,14.365623412436,0.0408610350823918,0.0558551923919378,0.775838092905844,0.83603122126581,3.5381303854902,0.88571613851011,59684.3267873456,258263.609537839
"6",2017,900.484478555828,146.517654207658,909.363826592043,38069909.4101287,13.7961667805454,0.0424470892769069,0.0578619893702346,0.773155240749584,0.833117524819487,3.35859902242063,0.886543318425525,55591.1520701097,240970.892300868
"7",2018,857.440842448224,135.569851280757,867.272843148573,38303018.481433,13.2774165087261,0.0443605287125547,0.0601921223357697,0.770231430626552,0.82942649571796,3.1777348260175,0.887246664502476,51765.7484059745,223874.52452121
"8",2019,816.837206435311,125.934828954413,828.718136589023,38538713.9963698,12.816772045485,0.0464154497826057,0.0626248076625874,0.767020644283152,0.82556676436554,3.01061110391002,0.887833195648757,48395.4615706739,208421.314119863
"9",2020,780.401376280376,117.600894235913,794.648306181139,38776808.6891809,12.4150528389311,0.0485260685953596,0.0650941693614454,0.763525824515261,0.821823823951854,2.86178260555684,0.888315370820193,45483.9050757764,194850.436088496
"10",2021,748.973515811439,110.992498754781,764.68788655226,39017081.2030189,12.0695358250325,0.0501706795746958,0.0670274924723863,0.759771452117679,0.818925152982817,2.74233657953945,0.88870743487845,43257.1283584782,184700.492619651
"11",2022,726.296668137953,106.764204602278,742.198215080538,39258883.0209581,11.7761329476797,0.0505840171562164,0.0675593264594559,0.755812496661718,0.818237189731508,2.67208936546306,0.889028025733406,41867.2824877957,179772.220152144
"12",2023,710.139386455743,103.411369502345,725.197736095353,39501875.7086346,11.5273474814925,0.0507141528078185,0.0678353240060681,0.751745604269317,0.818393014150704,2.6227369253527,0.889290938906078,40810.4429077938,176555.34825296
"13",2024,697.770146728682,100.617098300846,711.545614875131,39746013.2060055,11.316514293983,0.0507330522259541,0.0680355305135424,0.747634498503768,0.818932973067682,2.58506196562015,0.889505652932702,39959.0391426386,174213.849866028
"14",2025,687.817037266602,98.2420793513432,700.213808839176,39991300.6212914,11.1379818493747,0.0507137087967873,0.0682093039450606,0.743516087587846,0.819655476248596,2.55485035503097,0.889680098905376,39261.6102992075,172452.740276053
"15",2026,679.562395222284,96.2003974034015,690.623141009196,40237759.8973626,10.9869185724035,0.050688159255932,0.0683765657448422,0.739414038922879,0.820463895534917,2.52988536323564,0.889821013310647,38686.8947160862,171115.672627686
"16",2027,672.593335932016,94.4325522612093,682.410652313759,40485418.2550449,10.8592206652396,0.0506697328032371,0.0685450360935055,0.73534516043094,0.821310417231932,2.50888575492796,0.889934124570764,38213.4086736093,170109.363278106
"17",2028,666.646537314142,92.893944598237,675.325509940687,40734303.4466471,10.7514160781511,0.0506633611218745,0.0687171245613759,0.731322312637012,0.822170348380075,2.49103258938524,0.890024295130314,37825.1044508759,169372.129907564
"18",2029,661.536743006593,91.5492066902048,669.179735364511,40984442.0915937,10.6605611490035,0.0506702984943984,0.0688930552206447,0.7273558371306,0.823030128364431,2.47574909022436,0.890095658236028,37509.263070715,168859.22336484
"19",2030,657.123958880028,90.3694294821797,663.824997414482,41235859.0784064,10.5841650879363,0.0506902453270233,0.0690722510595112,0.723454220299823,0.823881796765476,2.46259919007971,0.890151711903766,37255.4635966901,168536.00040676
"20",2031,653.29684476346,89.3305144314296,659.140150792977,41488577.5397954,10.5201166656797,0.0507223070455544,0.0692539350285339,0.719624482919081,0.824720335082313,2.45123604774005,0.890195412565605,37054.9879473562,168374.435215839
"21",2032,649.964079673952,88.4121570463123,655.024298337151,41742619.0172284,10.4666238643022,0.0507654121330052,0.0694373706251162,0.715872414386226,0.825542390625476,2.44137523401859,0.890229254075299,36900.4573280414,168351.247023046
"22",2033,647.049446458821,87.5971491127391,651.392497563309,41998003.6743717,10.4221637295035,0.0508184888199852,0.0696219442956177,0.712202733579665,0.826345637425215,2.43277945303149,0.89025533497147,36785.5871902215,168446.810702932
"23",2034,644.488721487162,86.8708577622309,648.172816859844,42254750.5085404,10.3854404305511,0.0508805346971929,0.0698071805906427,0.708619213567805,0.827128436124589,2.42524887122624,0.890275416251405,36705.0061031714,168644.448841664
"24",2035,642.227513906475,86.2208158622994,645.304153557813,42512877.5401299,10.3553502205433,0.0509506391983445,0.0699927307078396,0.705124785978913,0.827889639399227,2.41861439629171,0.890290970863641,36654.1140041882,168929.928376519
